{
    "count": 1118,
    "next": "http://localhost:3002/api/v2/pokemon?offset=100&limit=100",
    "previous": null,
    "results": [
        {
            "name": "bulbasaur",
            "url": "http://localhost:3002/api/v2/pokemon/1/"
        },
        {
            "name": "ivysaur",
            "url": "http://localhost:3002/api/v2/pokemon/2/"
        },
        {
            "name": "venusaur",
            "url": "http://localhost:3002/api/v2/pokemon/3/"
        },
        {
            "name": "charmander",
            "url": "http://localhost:3002/api/v2/pokemon/4/"
        },
        {
            "name": "charmeleon",
            "url": "http://localhost:3002/api/v2/pokemon/5/"
        },
        {
            "name": "charizard",
            "url": "http://localhost:3002/api/v2/pokemon/6/"
        },
        {
            "name": "squirtle",
            "url": "http://localhost:3002/api/v2/pokemon/7/"
        },
        {
            "name": "wartortle",
            "url": "http://localhost:3002/api/v2/pokemon/8/"
        },
        {
            "name": "blastoise",
            "url": "http://localhost:3002/api/v2/pokemon/9/"
        }
    ]
}